…
## Solving trace

``` r
# Solution with trace
range <- seq(-5, 5, 0.25)
x0 <- t(as.matrix(expand.grid(x1 = range, x2 = range)))
(sol_trace <- w4(x0 = x0, func = func, Fa = func_abs, jacfunc = jac, trace = TRUE))
#> # A tibble: 290,613 × 5
#>    trace_id     i error    x1    x2
#>       <int> <dbl> <dbl> <dbl> <dbl>
#>  1        1     1     1 -5    -5   
#>  2        1     2     1 -4.89 -3.96
#>  3        1     3     1 -4.86 -2.91
#>  4        1     4     1 -3.53 -3.70
#>  5        1     5     1 -3.55 -2.61
#>  6        1     6     1 -3.45 -2.01
#>  7        1     7     1 -2.13 -3.03
#>  8        1     8     1 -1.91 -2.69
#>  9        1     9     1 -1.72 -2.42
#> 10        1    10     1 -1.53 -2.24
#> # … with 290,603 more rows
…
